module gitlab.com/easbarba/onur-go

go 1.23

require (
	github.com/BurntSushi/toml v1.4.0
	github.com/alecthomas/kong v1.6.0
	github.com/go-git/go-git/v5 v5.13.1
)

require (
	dario.cat/mergo v1.0.1 // indirect
	github.com/Microsoft/go-winio v0.6.2 // indirect
	github.com/ProtonMail/go-crypto v1.1.3 // indirect
	github.com/cloudflare/circl v1.5.0 // indirect
	github.com/cyphar/filepath-securejoin v0.3.6 // indirect
	github.com/emirpasic/gods v1.18.1 // indirect
	github.com/go-git/gcfg v1.5.1-0.20230307220236-3a3c6141e376 // indirect
	github.com/go-git/go-billy/v5 v5.6.1 // indirect
	github.com/golang/groupcache v0.0.0-20241129210726-2c02b8208cf8 // indirect
	github.com/jbenet/go-context v0.0.0-20150711004518-d14ea06fba99 // indirect
	github.com/kevinburke/ssh_config v1.2.0 // indirect
	github.com/mmcloughlin/avo v0.6.0 // indirect
	github.com/pjbgf/sha1cd v0.3.1 // indirect
	github.com/sergi/go-diff v1.3.2-0.20230802210424-5b0b94c5c0d3 // indirect
	github.com/skeema/knownhosts v1.3.0 // indirect
	github.com/xanzy/ssh-agent v0.3.3 // indirect
	golang.org/x/crypto v0.31.0 // indirect
	golang.org/x/mod v0.22.0 // indirect
	golang.org/x/net v0.33.0 // indirect
	golang.org/x/sync v0.10.0 // indirect
	golang.org/x/sys v0.29.0 // indirect
	golang.org/x/tools v0.28.0 // indirect
	gopkg.in/warnings.v0 v0.1.2 // indirect
)
